9 dplyr | Una breve introducción a R
…
View(airlines)
View(flights)
View(weather)

Observemos el contenido del data frame weather:

colnames(weather) 

##  [1] "origin"     "year"       "month"      "day"        "hour"      
##  [6] "temp"       "dewp"       "humid"      "wind_dir"   "wind_speed"
## [11] "wind_gust"  "precip"     "pressure"   "visib"      "time_hour"

weather

## # A tibble: 26,115 x 15
##    origin  year month   day  hour  temp  dewp humid wind_dir wind_speed
##    <chr>  <int> <int> <int> <int> <dbl> <dbl> <dbl>    <dbl>      <dbl>
##  1 EWR     2013     1     1     1  39.0  26.1  59.4      270      10.4 
##  2 EWR     2013     1     1     2  39.0  27.0  61.6      250       8.06
##  3 EWR     2013     1     1     3  39.0  28.0  64.4      240      11.5 
##  4 EWR     2013     1     1     4  39.9  28.0  62.2      250      12.7 
##  5 EWR     2013     1     1     5  39.0  28.0  64.4      260      12.7 
##  6 EWR     2013     1     1     6  37.9  28.0  67.2      240      11.5 
##  7 EWR     2013     1     1     7  39.0  28.0  64.4      240      15.0 
##  8 EWR     2013     1     1     8  39.9  28.0  62.2      250      10.4 
##  9 EWR     2013     1     1     9  39.9  28.0  62.2      260      15.0 
## 10 EWR     2013     1     1    10  41    28.0  59.6      260      13.8 
## # ... with 26,105 more rows, and 5 more variables: wind_gust <dbl>,
## #   precip <dbl>, pressure <dbl>, visib <dbl>, time_hour <dttm>

Para crear otra base de datos a partir de weather que tenga sólo las variables origin, year, month, day y temp procedemos de la siguiente manera:

data <- select(weather, origin, year, month, day, temp)
colnames(data)

## [1] "origin" "year"   "month"  "day"    "temp"

data

## # A tibble: 26,115 x 5
##    origin  year month   day  temp
##    <chr>  <int> <int> <int> <dbl>
##  1 EWR     2013     1     1  39.0
##  2 EWR     2013     1     1  39.0
##  3 EWR     2013     1     1  39.0
##  4 EWR     2013     1     1  39.9
##  5 EWR     2013     1     1  39.0
##  6 EWR     2013     1     1  37.9
##  7 EWR     2013     1     1  39.0
##  8 EWR     2013     1     1  39.9
##  9 EWR     2013     1     1  39.9
## 10 EWR     2013     1     1  41  
## # ... with 26,105 more rows

Nótese como el primer argumento corresponde al data frame weather, del cual se seleccionan las variables que le siguen por comas.

También podemos excluir columnas específicas, agregando un guión ‘-’

data <- select(weather, -origin)
colnames(data)

##  [1] "year"       "month"      "day"        "hour"       "temp"      
##  [6] "dewp"       "humid"      "wind_dir"   "wind_speed" "wind_gust" 
## [11] "precip"     "pressure"   "visib"      "time_hour"

data

## # A tibble: 26,115 x 14
##     year month   day  hour  temp  dewp humid wind_dir wind_speed wind_gust
##    <int> <int> <int> <int> <dbl> <dbl> <dbl>    <dbl>      <dbl>     <dbl>
##  1  2013     1     1     1  39.0  26.1  59.4      270      10.4         NA
##  2  2013     1     1     2  39.0  27.0  61.6      250       8.06        NA
##  3  2013     1     1     3  39.0  28.0  64.4      240      11.5         NA
##  4  2013     1     1     4  39.9  28.0  62.2      250      12.7         NA
##  5  2013     1     1     5  39.0  28.0  64.4      260      12.7         NA
##  6  2013     1     1     6  37.9  28.0  67.2      240      11.5         NA
##  7  2013     1     1     7  39.0  28.0  64.4      240      15.0         NA
##  8  2013     1     1     8  39.9  28.0  62.2      250      10.4         NA
##  9  2013     1     1     9  39.9  28.0  62.2      260      15.0         NA
## 10  2013     1     1    10  41    28.0  59.6      260      13.8         NA
## # ... with 26,105 more rows, and 4 more variables: precip <dbl>,
## #   pressure <dbl>, visib <dbl>, time_hour <dttm>
…
## [1] "dewp"       "humid"      "wind_dir"   "wind_speed" "wind_gust" 
## [6] "precip"     "pressure"   "visib"      "time_hour"

En el ejemplo anterior retiramos las columnas comprendidas entre origin y temp del data frame weather.

9.4 arrange()

La función arrange() permite reorganizar las filas de una base de datos. Por defecto, arrange() organiza las filas por orden ascendente.

Para organizar las filas del data frame weather en orden ascendente dados los valores de la variable temp  el código es el siguiente:

data <- arrange(weather, temp)
data

## # A tibble: 26,115 x 15
##    origin  year month   day  hour  temp  dewp humid wind_dir wind_speed
##    <chr>  <int> <int> <int> <int> <dbl> <dbl> <dbl>    <dbl>      <dbl>
##  1 EWR     2013     1    23     5  10.9 -4     50.2      270      10.4 
##  2 EWR     2013     1    23     6  10.9 -4     50.2      270      11.5 
##  3 EWR     2013     1    23     2  12.0 -7.06  41.3      270      10.4 
##  4 EWR     2013     1    23     3  12.0 -5.98  43.5      270       8.06
##  5 EWR     2013     1    23     4  12.0 -5.08  45.4      270       9.21
##  6 EWR     2013     1    23     7  12.0 -2.92  50.4      270      11.5 
##  7 EWR     2013     1    24     3  12.0  1.94  63.3       30       4.60
##  8 JFK     2013     1    23     4  12.0 -7.06  41.3      280      12.7 
##  9 JFK     2013     1    23     5  12.0 -5.08  45.4      280      15.0 
## 10 JFK     2013     1    23     6  12.0 -5.08  45.4      290      13.8 
## # ... with 26,105 more rows, and 5 more variables: wind_gust <dbl>,
## #   precip <dbl>, pressure <dbl>, visib <dbl>, time_hour <dttm>

Por otro lado, si queremos organizarlas de manera descendente podríamos hacer lo siguiente:

data <- arrange(weather, desc(temp))
data

## # A tibble: 26,115 x 15
##    origin  year month   day  hour  temp  dewp humid wind_dir wind_speed
##    <chr>  <int> <int> <int> <int> <dbl> <dbl> <dbl>    <dbl>      <dbl>
##  1 EWR     2013     7    18    15 100.   66.0  33.2      300       9.21
##  2 EWR     2013     7    19    16 100.   71.1  39.5      230      20.7 
##  3 EWR     2013     7    19    13  99.0  72.0  42.1      260      18.4 
##  4 EWR     2013     7    19    14  99.0  71.1  40.8      250      20.7 
##  5 EWR     2013     7    19    15  99.0  72.0  42.1      240      16.1 
##  6 LGA     2013     7    18    15  99.0  64.0  32.0      250      12.7 
##  7 LGA     2013     7    19    15  99.0  69.1  38.2      240      16.1 
##  8 LGA     2013     7    19    16  99.0  69.1  38.2      230      15.0 
##  9 EWR     2013     7    18    12  98.1  69.1  39.2      300       9.21
## 10 EWR     2013     7    18    13  98.1  66.9  36.4      300      11.5 
## # ... with 26,105 more rows, and 5 more variables: wind_gust <dbl>,
## #   precip <dbl>, pressure <dbl>, visib <dbl>, time_hour <dttm>

Para reorganizar las filas de un data frame podemos considerar más de una variable, por ejemplo, por day y hour:

data <- arrange(weather, day, hour)
data

## # A tibble: 26,115 x 15
##    origin  year month   day  hour  temp  dewp humid wind_dir wind_speed
##    <chr>  <int> <int> <int> <int> <dbl> <dbl> <dbl>    <dbl>      <dbl>
##  1 EWR     2013     2     1     0  28.9  10.9  46.4      250      19.6 
##  2 EWR     2013     3     1     0  37.0  30.0  75.5      250       4.60
##  3 EWR     2013     4     1     0  46.4  45.0  96.0      270       6.90
##  4 EWR     2013     5     1     0  52.0  30.9  44.3        0       0   
##  5 EWR     2013     6     1     0  78.1  64.0  62.0      230       6.90
##  6 EWR     2013     7     1     0  75.2  71.6  88.6      140       3.45
##  7 EWR     2013     8     1     0  73.0  63.0  70.7      180       4.60
##  8 EWR     2013     9     1     0  80.1  71.1  74.1      220       5.75
##  9 EWR     2013    10     1     0  59    54.0  83.3      230       8.06
## 10 EWR     2013    11     1     0  64.0  62.1  93.3      200      11.5 
## # ... with 26,105 more rows, and 5 more variables: wind_gust <dbl>,
## #   precip <dbl>, pressure <dbl>, visib <dbl>, time_hour <dttm>

9.5 filter()

Esta función nos permite filtrar filas dada una condición:

data <- filter(weather, temp >= 52)
data

## # A tibble: 14,181 x 15
##    origin  year month   day  hour  temp  dewp humid wind_dir wind_speed
##    <chr>  <int> <int> <int> <int> <dbl> <dbl> <dbl>    <dbl>      <dbl>
##  1 EWR     2013     1    14     9  53.6  52.0 100        250       5.75
##  2 EWR     2013     1    14    10  55.9  53.1  90.0      270       5.75
##  3 EWR     2013     1    14    11  57.9  50    74.9      320      11.5 
##  4 EWR     2013     1    14    12  55.9  45.0  66.5      340      11.5 
##  5 EWR     2013     1    14    13  57.0  44.1  61.8      320      10.4 
##  6 EWR     2013     1    14    14  55.9  37.9  50.7      340      12.7 
##  7 EWR     2013     1    14    15  55.0  39.0  54.7      350      13.8 
##  8 EWR     2013     1    14    16  53.1  30.9  42.6      320      15.0 
##  9 EWR     2013     1    20    10  54.0  28.0  36.6      240      19.6 
## 10 EWR     2013     1    20    11  54.0  27.0  35.0      250      19.6 
## # ... with 14,171 more rows, and 5 more variables: wind_gust <dbl>,
## #   precip <dbl>, pressure <dbl>, visib <dbl>, time_hour <dttm>

En el ejemplo anterior incluimos las filas que cumplieran la condición especificada en el segundo argumento, es decir, vuelos realizados con temperaturas mayores a 52º.

También es posible incluir varias condiciones, donde además de la condición de temperatura, filtramos por vuelos que tengan como origen el aeropuerto EWR.:

table(weather$origin)

## 
##  EWR  JFK  LGA 
## 8703 8706 8706

data <- filter(weather, temp >= 52, origin=="EWR")
data

## # A tibble: 4,775 x 15
##    origin  year month   day  hour  temp  dewp humid wind_dir wind_speed
##    <chr>  <int> <int> <int> <int> <dbl> <dbl> <dbl>    <dbl>      <dbl>
##  1 EWR     2013     1    14     9  53.6  52.0 100        250       5.75
##  2 EWR     2013     1    14    10  55.9  53.1  90.0      270       5.75
##  3 EWR     2013     1    14    11  57.9  50    74.9      320      11.5 
##  4 EWR     2013     1    14    12  55.9  45.0  66.5      340      11.5 
##  5 EWR     2013     1    14    13  57.0  44.1  61.8      320      10.4 
##  6 EWR     2013     1    14    14  55.9  37.9  50.7      340      12.7 
##  7 EWR     2013     1    14    15  55.0  39.0  54.7      350      13.8 
##  8 EWR     2013     1    14    16  53.1  30.9  42.6      320      15.0 
##  9 EWR     2013     1    20    10  54.0  28.0  36.6      240      19.6 
## 10 EWR     2013     1    20    11  54.0  27.0  35.0      250      19.6 
## # ... with 4,765 more rows, and 5 more variables: wind_gust <dbl>,
## #   precip <dbl>, pressure <dbl>, visib <dbl>, time_hour <dttm>
…
